COMPSCIX 415.2 Homework 5/Midterm
…
Answer:

As seen in the above dataset there are 485 ideal diamonds, and they comprise 2.25% of all ideal diamonds. This makes sense, since as the diamond is more ideal, small diamonds are more expensive. Similarly, most fair diamonds wont have the same price as any of the others. It is interesting that very-good and premium diamonds are the same. Which implies that we are missing some other parameter, likely clarity, colour or some such variable.

EDA

Question: 1

# Select year and month from the dataset with default sorting order
txhousing %>% select(year,month)

## # A tibble: 8,602 x 2
##     year month
##    <int> <int>
##  1  2000     1
##  2  2000     2
##  3  2000     3
##  4  2000     4
##  5  2000     5
##  6  2000     6
##  7  2000     7
##  8  2000     8
##  9  2000     9
## 10  2000    10
## # ... with 8,592 more rows

#Select year and month from the dataset and finding the maximum year and month
txhousing %>% select(year,month) %>% arrange(desc(year), desc(month))

## # A tibble: 8,602 x 2
##     year month
##    <int> <int>
##  1  2015     7
##  2  2015     7
##  3  2015     7
##  4  2015     7
##  5  2015     7
##  6  2015     7
##  7  2015     7
##  8  2015     7
##  9  2015     7
## 10  2015     7
## # ... with 8,592 more rows
…
## # A tibble: 1 x 1
##       n
##   <int>
## 1    46

Answer:

There are 46 unique cities in the dataset.

Question: 3

# arrange the volumes in descending order and find the top city
txhousing %>% arrange(desc(volume))

## # A tibble: 8,602 x 9
##    city     year month sales     volume median listings inventory  date
##    <chr>   <int> <int> <dbl>      <dbl>  <dbl>    <dbl>     <dbl> <dbl>
##  1 Houston  2015     7  8945 2568156780 217600    23875       3.4 2016.
##  2 Houston  2015     6  8449 2490238594 222400    22311       3.2 2015.
##  3 Houston  2014     6  8391 2342443127 211200    19725       2.9 2014.
##  4 Houston  2014     7  8391 2278932511 199700    20214       3   2014.
##  5 Houston  2014     8  8167 2195184825 202400    20007       2.9 2015.
##  6 Houston  2013     7  8468 2168720825 187800    21497       3.3 2014.
##  7 Houston  2014     5  7877 2154791886 199300    18883       2.8 2014.
##  8 Houston  2013     5  8439 2121508529 186100    20526       3.3 2013.
##  9 Houston  2015     5  7357 2097957518 220100    21101       3.1 2015.
## 10 Houston  2013     8  8155 2083377894 186700    21366       3.3 2014.
## # ... with 8,592 more rows
…
Answer:

From the above plot, we can assume that the sales are incresing along with the number of listings.

Question: 5

# finding the cities with valid sales
valid_cities <- txhousing %>%
mutate(valid_sales = !is.na(sales)) %>%
group_by(city)
valid_cities # show valid cities

## # A tibble: 8,602 x 10
## # Groups:   city [46]
##    city     year month sales   volume median listings inventory  date
##    <chr>   <int> <int> <dbl>    <dbl>  <dbl>    <dbl>     <dbl> <dbl>
##  1 Abilene  2000     1    72  5380000  71400      701       6.3 2000 
##  2 Abilene  2000     2    98  6505000  58700      746       6.6 2000.
##  3 Abilene  2000     3   130  9285000  58100      784       6.8 2000.
##  4 Abilene  2000     4    98  9730000  68600      785       6.9 2000.
##  5 Abilene  2000     5   141 10590000  67300      794       6.8 2000.
##  6 Abilene  2000     6   156 13910000  66900      780       6.6 2000.
##  7 Abilene  2000     7   152 12635000  73500      742       6.2 2000.
##  8 Abilene  2000     8   131 10710000  75000      765       6.4 2001.
##  9 Abilene  2000     9   104  7615000  64500      771       6.5 2001.
## 10 Abilene  2000    10   101  7040000  59300      764       6.6 2001.
## # ... with 8,592 more rows, and 1 more variable: valid_sales <lgl>

# finding the proportions
proportions_cities <- valid_cities %>%
summarize(proportion = round(1 - sum(valid_sales)/length(valid_sales),4)) %>%
arrange(desc(proportion))
proportions_cities # city proportions

## # A tibble: 46 x 2
##    city               proportion
##    <chr>                   <dbl>
##  1 South Padre Island     0.620 
##  2 Kerrville              0.556 
##  3 Midland                0.401 
##  4 Odessa                 0.385 
##  5 San Marcos             0.246 
##  6 Laredo                 0.192 
##  7 Harlingen              0.134 
##  8 Waco                   0.102 
##  9 Texarkana              0.0909
## 10 Brazoria County        0.0749
## # ... with 36 more rows

Question: 6

Are the distributions of the median sales price (column name median), when grouped by city, different? The same? Show your work.

# cities above 500 summarise by volume
txhousing %>% group_by(sales > 500) 

## # A tibble: 8,602 x 10
## # Groups:   sales > 500 [3]
##    city     year month sales   volume median listings inventory  date
##    <chr>   <int> <int> <dbl>    <dbl>  <dbl>    <dbl>     <dbl> <dbl>
##  1 Abilene  2000     1    72  5380000  71400      701       6.3 2000 
##  2 Abilene  2000     2    98  6505000  58700      746       6.6 2000.
##  3 Abilene  2000     3   130  9285000  58100      784       6.8 2000.
##  4 Abilene  2000     4    98  9730000  68600      785       6.9 2000.
##  5 Abilene  2000     5   141 10590000  67300      794       6.8 2000.
##  6 Abilene  2000     6   156 13910000  66900      780       6.6 2000.
##  7 Abilene  2000     7   152 12635000  73500      742       6.2 2000.
##  8 Abilene  2000     8   131 10710000  75000      765       6.4 2001.
##  9 Abilene  2000     9   104  7615000  64500      771       6.5 2001.
## 10 Abilene  2000    10   101  7040000  59300      764       6.6 2001.
## # ... with 8,592 more rows, and 1 more variable: `sales > 500` <lgl>
…
